[
    {
        "id": "tt7784604"
    },
    {
        "id": "tt5164214"
    },
    {
        "id": "tt4881806"
    },
    {
        "id": "tt3778644"
    },
    {
        "id": "tt6499752"
    },
    {
        "id": "tt7690670"
    },
    {
        "id": "tt5834262"
    },
    {
        "id": "tt3799232"
    }
]